module gitlab.com/vsitnikov/go-antibruteforce

go 1.13

require (
	github.com/gmax79/antibf v0.0.0-20200120212258-cf54bbc2dd02
	github.com/gmax79/otusgolang/rmq v0.0.0-20200117124837-fe6894daed2e
	github.com/go-redis/redis/v7 v7.0.0-beta.6
	github.com/golang/protobuf v1.3.2
	github.com/jdeal-mediamath/clockwork v0.1.0
	github.com/spf13/cobra v0.0.5
	go.uber.org/zap v1.13.0
	golang.org/x/net v0.0.0-20190923162816-aa69164e4478
	google.golang.org/grpc v1.26.0
)
